<svg width="25" height="26" viewBox="0 0 25 26" fill="none" xmlns="http://www.w3.org/2000/svg">
<g clip-path="url(#clip0678)">
<path d="M13.5019 10.4708V9.35068C13.5019 9.18253 13.5096 9.05229 13.5253 8.96028C13.541 8.86814 13.5767 8.77751 13.632 8.68805C13.6872 8.59864 13.7766 8.53692 13.9001 8.50271C14.0238 8.46845 14.1881 8.45138 14.3933 8.45138H15.5134V6.21118H13.7228C12.6867 6.21118 11.9425 6.457 11.4902 6.94864C11.038 7.44039 10.8119 8.16472 10.8119 9.12191V10.4708H9.4707V12.7111H10.8118V19.2111H13.5019V12.7112H15.2924L15.5291 10.4708H13.5019Z" fill="#463A34"/>
</g>
<path fill-rule="evenodd" clip-rule="evenodd" d="M12.4999 24.2112C18.8512 24.2112 23.9999 19.0625 23.9999 12.7112C23.9999 6.35991 18.8512 1.21118 12.4999 1.21118C6.1486 1.21118 0.999878 6.35991 0.999878 12.7112C0.999878 19.0625 6.1486 24.2112 12.4999 24.2112ZM12.4999 25.2112C19.4034 25.2112 24.9999 19.6147 24.9999 12.7112C24.9999 5.80762 19.4034 0.211182 12.4999 0.211182C5.59632 0.211182 -0.00012207 5.80762 -0.00012207 12.7112C-0.00012207 19.6147 5.59632 25.2112 12.4999 25.2112Z" fill="#463A34"/>
<defs>
<clipPath id="clip0678">
<rect width="13" height="13" fill="white" transform="translate(5.99988 6.21118)"/>
</clipPath>
</defs>
</svg>
