<svg width="25" height="26" viewBox="0 0 25 26" fill="none" xmlns="http://www.w3.org/2000/svg">
<g clip-path="url(#clip05656)">
<path d="M18.5101 6.70215C18.1828 6.37479 17.7906 6.21118 17.3337 6.21118H7.66825C7.21119 6.21118 6.81912 6.37485 6.49176 6.70215C6.16446 7.02936 6.00085 7.42149 6.00085 7.87845V17.5438C6.00085 18.0007 6.16443 18.3929 6.49176 18.7202C6.81912 19.0475 7.21128 19.2112 7.66825 19.2112H17.3336C17.7904 19.2112 18.1827 19.0475 18.51 18.7202C18.8373 18.3929 19.0008 18.0007 19.0008 17.5438V7.87845C19.0008 7.4214 18.8373 7.02948 18.5101 6.70215ZM10.6686 10.8957C11.1792 10.4021 11.7929 10.1551 12.5095 10.1551C13.2316 10.1551 13.848 10.4021 14.3587 10.8957C14.8694 11.3894 15.1246 11.9861 15.1246 12.6858C15.1246 13.3853 14.8694 13.9821 14.3587 14.4757C13.848 14.9695 13.2318 15.2164 12.5095 15.2164C11.7929 15.2164 11.1793 14.9693 10.6686 14.4757C10.1579 13.982 9.90261 13.3853 9.90261 12.6858C9.90261 11.9861 10.1579 11.3894 10.6686 10.8957ZM17.5284 17.197C17.5284 17.3435 17.4774 17.4662 17.376 17.565C17.2742 17.6637 17.1531 17.7131 17.0119 17.7131H7.96451C7.81783 17.7131 7.69501 17.6637 7.59636 17.565C7.49755 17.4664 7.4482 17.3435 7.4482 17.197V11.7124H8.64152C8.52872 12.0679 8.47231 12.4375 8.47231 12.8211C8.47231 13.9047 8.86723 14.8285 9.65716 15.5932C10.4472 16.3576 11.3979 16.74 12.5094 16.74C13.2429 16.74 13.92 16.565 14.5408 16.2152C15.1615 15.8652 15.6521 15.3899 16.0134 14.7889C16.3746 14.188 16.5552 13.532 16.5552 12.8212C16.5552 12.4376 16.4985 12.068 16.3857 11.7124H17.5284V17.197H17.5284V17.197ZM17.5284 9.63881C17.5284 9.80244 17.472 9.9407 17.3589 10.0535C17.2461 10.1664 17.108 10.2228 16.9442 10.2228H15.4716C15.3081 10.2228 15.1697 10.1664 15.0569 10.0535C14.9441 9.9407 14.8877 9.80244 14.8877 9.63881V8.24245C14.8877 8.08445 14.9441 7.94764 15.0569 7.83194C15.1697 7.7163 15.3081 7.65841 15.4716 7.65841H16.9442C17.108 7.65841 17.2462 7.71627 17.3589 7.83194C17.4719 7.94764 17.5284 8.08445 17.5284 8.24245V9.63881Z" fill="#463A34"/>
</g>
<path fill-rule="evenodd" clip-rule="evenodd" d="M12.4999 24.2112C18.8512 24.2112 23.9999 19.0625 23.9999 12.7112C23.9999 6.35991 18.8512 1.21118 12.4999 1.21118C6.1486 1.21118 0.999878 6.35991 0.999878 12.7112C0.999878 19.0625 6.1486 24.2112 12.4999 24.2112ZM12.4999 25.2112C19.4034 25.2112 24.9999 19.6147 24.9999 12.7112C24.9999 5.80762 19.4034 0.211182 12.4999 0.211182C5.59632 0.211182 -0.00012207 5.80762 -0.00012207 12.7112C-0.00012207 19.6147 5.59632 25.2112 12.4999 25.2112Z" fill="#463A34"/>
<defs>
<clipPath id="clip05656">
<rect width="13" height="13" fill="white" transform="translate(5.99988 6.21118)"/>
</clipPath>
</defs>
</svg>
