<svg width="280" height="61" viewBox="0 0 280 61" fill="none" xmlns="http://www.w3.org/2000/svg">
<g clip-path="url(#clip034)">
<path fill-rule="evenodd" clip-rule="evenodd" d="M141.012 16.7778V16.3334C141.012 15.2223 140.787 14.1112 140.562 13.4445C140.112 12.5556 139.663 11.8889 138.988 11.4445C138.313 11.0001 137.414 10.7778 136.514 10.7778C135.839 10.7778 135.165 11.0001 134.49 11.2223C133.59 11.4445 133.141 11.6667 132.691 12.3334C132.241 12.7778 132.016 13.4445 131.791 14.1112C131.566 14.7778 131.566 15.4445 131.566 16.3334C131.566 17 131.566 17.4445 131.791 17.8889C132.016 18.3334 132.016 19 132.466 19.4445C132.691 19.8889 133.141 20.3334 133.59 20.5556C134.04 21 134.49 21.2223 135.165 21.4445C135.839 21.6667 136.514 21.6667 137.189 21.6667C137.863 21.6667 138.538 21.6667 139.213 21.4445C139.438 21.2223 140.112 21 140.562 20.5556L139.663 18.7778C139.213 19 138.988 19.2223 138.538 19.2223C138.088 19.4445 137.639 19.4445 137.189 19.4445C136.514 19.4445 136.064 19.2223 135.614 19.2223C135.165 19 134.94 18.5556 134.49 18.3334C134.265 17.8889 134.04 17.4445 134.04 17H141.012V16.7778ZM134.265 15.0001C134.265 14.5556 134.265 14.1112 134.49 13.8889C134.715 13.4445 134.94 13.2223 135.165 13.0001C135.39 12.7778 135.839 12.7778 136.289 12.7778C136.739 12.7778 136.964 12.7778 137.189 13.0001C137.414 13.2223 137.639 13.2223 137.863 13.4445C138.088 13.6667 138.088 13.8889 138.313 14.1112C138.313 14.3334 138.538 14.7778 138.538 15.0001H134.265Z" fill="#E7DFD3"/>
<path fill-rule="evenodd" clip-rule="evenodd" d="M148.434 21.667C148.884 21.667 149.333 21.667 149.783 21.667C150.233 21.667 150.683 21.4448 151.133 21.4448C151.582 21.2226 152.032 21.2226 152.257 21.0003V5.66699H149.558V10.7781C149.333 10.7781 149.333 10.7781 149.109 10.7781C148.884 10.7781 148.659 10.7781 148.659 10.7781C148.434 10.7781 148.434 10.7781 148.209 10.7781C147.309 10.7781 146.635 11.0003 145.96 11.2226C145.285 11.4448 144.611 11.8892 144.161 12.3337C143.711 12.7781 143.261 13.4448 143.036 14.1114C142.811 14.7781 142.586 15.4448 142.586 16.3337C142.586 17.2226 142.811 17.8892 143.036 18.5559C143.261 19.2226 143.711 19.8892 144.386 20.3337C144.835 20.5559 145.285 21.0003 146.185 21.2226C146.86 21.4448 147.534 21.667 148.434 21.667ZM148.434 19.4448C147.759 19.4448 147.309 19.2226 146.635 19.0003C146.185 18.7781 145.96 18.3337 145.51 17.8892C145.285 17.4448 145.06 16.7781 145.06 16.1114C145.06 15.4448 145.285 14.7781 145.51 14.3337C145.96 13.8892 146.185 13.4448 146.86 13.2226C147.309 13.0003 147.984 12.7781 148.434 12.7781C148.659 12.7781 148.884 12.7781 149.109 12.7781C149.333 12.7781 149.558 12.7781 149.783 12.7781V19.0003C149.558 19.0003 149.558 19.0003 149.333 19.0003C149.109 19.0003 149.108 19.0003 148.884 19.0003C148.659 19.4448 148.659 19.4448 148.434 19.4448Z" fill="#E7DFD3"/>
<path fill-rule="evenodd" clip-rule="evenodd" d="M154.956 21.4448H157.655V11.0003H154.956V21.4448ZM156.305 9.22255C156.53 9.22255 156.98 9.22255 157.205 9.00033C157.43 8.7781 157.655 8.7781 157.88 8.33366C158.105 8.11144 158.105 7.88921 158.105 7.44477C158.105 7.22255 158.105 6.7781 157.88 6.55588C157.655 6.33366 157.43 6.11144 157.205 5.88921C156.98 5.66699 156.755 5.66699 156.305 5.66699C156.08 5.66699 155.631 5.66699 155.406 5.88921C155.181 6.33366 155.181 6.55588 154.956 6.7781C154.731 7.00033 154.731 7.22255 154.731 7.66699C154.731 7.88921 154.731 8.33366 154.956 8.55588C155.181 8.7781 155.181 8.7781 155.631 9.00033C155.856 9.22255 156.08 9.22255 156.305 9.22255Z" fill="#E7DFD3"/>
<path fill-rule="evenodd" clip-rule="evenodd" d="M113.349 21.4446H116.048V14.1112C116.498 13.889 116.948 13.4446 117.173 13.4446C117.622 13.2223 118.072 13.2223 118.522 13.2223C118.972 13.2223 119.197 13.2223 119.422 13.4446C119.647 13.6668 119.871 13.889 119.871 14.3334C119.871 14.7779 119.871 15.0001 119.871 15.4446V21.6668H122.57V14.3334V14.1112V13.889C123.02 13.6668 123.47 13.2223 123.695 13.2223C124.145 13.0001 124.594 13.0001 125.044 13.0001C125.494 13.0001 125.944 13.0001 126.169 13.2223C126.394 13.4446 126.618 13.6668 126.618 14.1112C126.618 14.3334 126.843 14.7779 126.843 15.2223V21.4446H129.542V14.3334C129.542 13.6668 129.542 13.0001 129.317 12.5557C129.092 12.1112 128.867 11.6668 128.643 11.4446C128.418 11.2223 127.968 11.0001 127.518 10.7779C127.068 10.5557 126.618 10.5557 126.169 10.5557C125.494 10.5557 125.044 10.7779 124.369 11.0001C123.695 11.2223 123.02 11.6668 122.345 12.1112C122.12 11.6668 121.671 11.2223 121.221 11.0001C120.771 10.7779 120.096 10.5557 119.422 10.5557C118.972 10.5557 118.522 10.5557 118.072 10.7779C117.622 11.0001 117.173 11.0001 116.948 11.2223C116.498 11.4446 116.273 11.6668 115.823 11.889L115.598 10.7779H113.349V21.4446Z" fill="#E7DFD3"/>
<path fill-rule="evenodd" clip-rule="evenodd" d="M165.076 21.6667C165.526 21.6667 165.976 21.6667 166.426 21.4445C166.875 21.4445 167.325 21.2223 167.55 21C168.225 21 168.45 20.7778 168.675 20.5556L168 18.7778C167.55 19 167.325 19.2223 166.875 19.2223C166.426 19.4445 165.976 19.4445 165.526 19.4445C164.851 19.4445 164.402 19.2223 163.952 19C163.502 18.7778 163.052 18.3334 162.827 17.8889C162.602 17.4445 162.377 16.7778 162.377 16.1112C162.377 15.6667 162.377 15.2223 162.602 14.7778C162.827 14.3334 163.052 14.1112 163.277 13.6667C163.502 13.4445 163.952 13.2223 164.177 13.0001C164.626 12.7778 165.076 12.7778 165.526 12.7778C165.976 12.7778 166.426 12.7778 166.875 13.0001C167.325 13.2223 167.775 13.4445 168 13.6667V11.4445C167.775 11.2223 167.55 11.2223 167.325 11.0001C167.1 11.0001 166.651 10.7778 166.426 10.7778C165.976 10.7778 165.751 10.7778 165.301 10.7778C164.402 10.7778 163.727 11.0001 163.052 11.2223C162.602 11.4445 161.928 11.6667 161.478 12.3334C161.028 12.7778 160.578 13.4445 160.353 14.1112C160.128 14.7778 159.904 15.4445 159.904 16.3334C159.904 17 160.128 17.8889 160.353 18.5556C160.578 19.2223 161.028 19.6667 161.478 20.3334C161.928 20.7778 162.377 21.2223 163.052 21.4445C163.502 21.4445 164.177 21.6667 165.076 21.6667Z" fill="#E7DFD3"/>
<path fill-rule="evenodd" clip-rule="evenodd" d="M176.771 21.4445H179.02C179.02 21.2223 178.795 20.7778 178.795 20.3334C178.795 19.8889 178.795 19.4445 178.795 18.7778V14.5556C178.795 13.2223 178.345 12.3334 177.671 11.6667C176.996 11.0001 175.872 10.7778 174.522 10.7778C173.847 10.7778 173.173 10.7778 172.498 11.0001C171.598 11.0001 170.924 11.4445 170.474 11.6667L171.373 13.4445C171.823 13.2223 172.273 13.0001 172.723 13.0001C173.173 12.7778 173.623 12.7778 174.297 12.7778C174.747 12.7778 174.972 12.7778 175.422 13.0001C175.647 13.2223 175.872 13.2223 176.096 13.6667C176.321 13.8889 176.321 14.3334 176.321 14.5556V14.7778H174.522C174.072 14.7778 173.398 14.7778 172.948 15.0001C172.498 15.0001 172.048 15.2223 171.598 15.4445C170.924 15.6667 170.474 16.1112 170.249 16.5556C170.024 17 169.799 17.6667 169.799 18.3334C169.799 19 170.024 19.6667 170.249 20.1112C170.474 20.5556 170.924 21 171.373 21.2223C171.823 21.4445 172.498 21.6667 173.173 21.6667C173.623 21.6667 174.072 21.6667 174.297 21.4445C174.747 21.4445 174.972 21.2223 175.197 21C175.422 20.7778 175.872 20.5556 176.096 20.3334L176.771 21.4445ZM176.096 16.5556V18.7778C175.872 18.7778 175.872 19 175.647 19C175.422 19.2223 175.197 19.2223 174.972 19.2223C174.747 19.2223 174.522 19.4445 174.072 19.4445C173.623 19.4445 173.173 19.2223 172.948 19C172.723 18.7778 172.498 18.3334 172.498 17.8889C172.498 17.6667 172.498 17.4445 172.723 17.2223C172.723 17 172.948 16.7778 173.173 16.7778C173.398 16.7778 173.623 16.5556 173.847 16.5556C174.072 16.5556 174.297 16.5556 174.747 16.5556H176.096Z" fill="#E7DFD3"/>
<path fill-rule="evenodd" clip-rule="evenodd" d="M181.269 19.0003C181.269 19.8892 181.494 20.5559 181.944 20.7781C182.394 21.2225 183.068 21.4448 183.968 21.4448C184.193 21.4448 184.643 21.4448 184.867 21.4448C185.317 21.4448 185.542 21.2225 185.767 21.2225L185.317 19.2225C185.092 19.2225 185.092 19.2225 184.867 19.2225C184.643 19.2225 184.643 19.2225 184.643 19.2225C184.418 19.2225 184.193 19.2225 183.968 19.0003C183.743 18.7781 183.743 18.5559 183.743 18.3337V5.66699H181.044V19.0003H181.269Z" fill="#E7DFD3"/>
<path fill-rule="evenodd" clip-rule="evenodd" d="M196.337 26.5558C197.237 26.5558 198.136 26.5558 198.811 26.3336C199.486 26.1113 200.16 25.8891 200.61 25.6669C201.06 25.4447 201.51 25.0002 201.735 24.5558C201.96 24.1113 202.185 23.6669 202.185 23.2224C202.185 22.778 202.185 22.3336 201.96 22.1113C201.735 21.8891 201.51 21.4447 201.06 21.2224C200.61 21.0002 200.16 20.778 199.711 20.5558C199.261 20.3336 198.811 20.3336 198.361 20.3336C197.911 20.3336 197.462 20.1113 197.012 20.1113C196.562 20.1113 196.337 19.8891 195.887 19.8891C195.663 19.8891 195.213 19.6669 194.988 19.6669C194.763 19.4447 194.763 19.4447 194.763 19.2224C194.763 19.2224 194.763 19.0002 194.763 18.778C194.763 18.5558 194.763 18.5558 194.988 18.3336C195.213 18.3336 195.438 18.3336 195.663 18.5558C195.887 18.5558 196.112 18.5558 196.337 18.5558C197.012 18.5558 197.462 18.5558 198.136 18.3336C198.586 18.1113 199.036 17.8891 199.486 17.4447C199.936 17.0002 200.16 16.778 200.385 16.3336C200.61 15.8891 200.61 15.2224 200.61 14.778C200.61 14.3336 200.61 13.8891 200.385 13.4447C200.16 13.0002 199.936 12.5558 199.711 12.3336C199.936 12.3336 199.936 12.3335 200.16 12.1113C200.385 12.1113 200.385 12.1113 200.61 12.1113C200.835 12.1113 200.835 12.1113 201.06 12.1113C201.285 12.1113 201.285 12.1113 201.51 12.1113L201.96 10.1113H201.735C201.51 10.1113 201.51 10.1113 201.285 10.1113C200.835 10.1113 200.385 10.1113 200.16 10.1113C199.936 10.1113 199.486 10.3336 199.261 10.3336C199.036 10.5558 198.811 10.5558 198.586 10.778C198.586 10.778 198.586 10.778 198.361 10.778C198.361 10.778 198.361 10.778 198.136 10.778C197.911 10.5558 197.687 10.5558 197.237 10.5558C196.787 10.5558 196.562 10.3336 195.887 10.3336C195.213 10.3336 194.538 10.5558 194.088 10.5558C193.638 10.778 193.189 11.0002 192.739 11.4447C192.289 11.8891 192.064 12.1113 191.839 12.778C191.614 13.2224 191.614 13.6669 191.614 14.1113C191.614 14.5558 191.614 15.0002 191.839 15.4447C192.064 15.8891 192.289 16.3336 192.514 16.5558C192.739 16.778 193.189 17.2224 193.414 17.4447C192.964 17.6669 192.739 18.1113 192.514 18.3336C192.289 18.778 192.289 19.0002 192.289 19.2224C192.289 20.3336 193.189 21.0002 194.313 21.2224C194.763 21.4447 195.438 21.4447 196.112 21.4447C196.562 21.4447 196.787 21.4447 197.237 21.6669C197.687 21.6669 197.911 21.8891 198.136 21.8891C198.361 21.8891 198.586 22.1113 198.811 22.3336C199.036 22.5558 199.036 22.778 199.036 23.0002C199.036 23.2224 198.811 23.4447 198.586 23.6669C198.361 23.8891 198.136 24.1113 197.687 24.1113C197.237 24.1113 196.787 24.3336 196.337 24.3336C195.663 24.3336 195.213 24.3336 194.763 24.1113C194.313 24.1113 194.088 23.8891 193.863 23.6669C193.414 23.2224 192.964 23.2224 192.514 23.4447L191.839 23.8891C191.614 23.8891 191.614 24.1113 191.614 24.3336C191.614 24.5558 191.614 24.778 191.839 24.778C192.289 25.2224 192.964 25.6669 193.638 25.8891C194.538 26.5558 195.438 26.5558 196.337 26.5558ZM196.562 16.5558C196.112 16.5558 195.887 16.5558 195.663 16.3336C195.438 16.1113 195.213 15.8891 194.988 15.6669C194.763 15.4447 194.763 15.0002 194.763 14.778C194.763 14.3336 194.763 14.1113 194.988 13.6669C195.213 13.4447 195.438 13.2224 195.663 13.0002C195.887 12.778 196.337 12.778 196.562 12.778C197.012 12.778 197.237 12.778 197.687 13.0002C197.912 13.2224 198.136 13.4447 198.361 13.6669C198.586 13.8891 198.586 14.3336 198.586 14.5558C198.586 15.0002 198.586 15.2224 198.361 15.6669C198.136 15.8891 197.912 16.1113 197.462 16.3336C197.237 16.5558 197.012 16.5558 196.562 16.5558Z" fill="#E7DFD3"/>
<path fill-rule="evenodd" clip-rule="evenodd" d="M212.755 16.7778V16.3334C212.755 15.2223 212.53 14.1112 212.305 13.4445C211.855 12.5556 211.406 11.8889 210.731 11.4445C210.056 11.0001 209.157 10.7778 208.257 10.7778C207.582 10.7778 206.908 11.0001 206.233 11.2223C205.558 11.4445 205.108 11.8889 204.659 12.3334C204.209 12.7778 203.984 13.4445 203.759 14.1112C203.534 14.7778 203.534 15.4445 203.534 16.3334C203.534 17 203.534 17.4445 203.759 17.8889C203.984 18.3334 203.984 19 204.434 19.4445C204.209 19.6667 204.659 20.1112 205.108 20.5556C205.558 21 206.008 21.2223 206.683 21.4445C207.357 21.6667 208.032 21.6667 208.707 21.6667C209.382 21.6667 210.056 21.6667 210.731 21.4445C211.406 21.2223 211.855 21 212.53 20.7778L211.631 19C211.181 19.2223 210.956 19.4445 210.506 19.4445C210.056 19.6667 209.606 19.6667 209.157 19.6667C208.482 19.6667 208.032 19.4445 207.582 19.4445C206.908 19 206.458 18.5556 206.233 18.3334C206.008 17.8889 205.783 17.4445 205.783 17H212.755V16.7778ZM205.783 15.0001C205.783 14.5556 205.783 14.1112 206.008 13.8889C206.233 13.4445 206.458 13.2223 206.683 13.0001C206.908 12.7778 207.357 12.7778 207.807 12.7778C208.257 12.7778 208.482 12.7778 208.707 13.0001C208.932 13.2223 209.157 13.2223 209.382 13.4445C209.606 13.6667 209.606 13.8889 209.831 14.1112C209.831 14.3334 210.056 14.7778 210.056 15.0001H205.783Z" fill="#E7DFD3"/>
<path fill-rule="evenodd" clip-rule="evenodd" d="M214.554 21.4445H217.253V14.1112C217.703 13.8889 218.153 13.4445 218.602 13.2223C219.052 13.0001 219.502 13.0001 219.952 13.0001C220.402 13.0001 220.851 13.0001 221.076 13.2223C221.301 13.4445 221.526 13.6667 221.526 14.1112C221.526 14.5556 221.751 14.7778 221.751 15.2223V21.2223H224.45V14.5556C224.45 13.8889 224.45 13.2223 224.225 12.7778C224 12.3334 223.775 11.8889 223.55 11.6667C223.325 11.4445 222.876 11.2223 222.426 11.0001C221.976 10.7778 221.526 10.7778 221.301 10.7778C220.627 10.7778 219.952 11.0001 219.502 11.2223C218.827 11.4445 218.378 11.8889 217.703 12.3334L217.478 11.2223H215.229V21.4445H214.554Z" fill="#E7DFD3"/>
<path fill-rule="evenodd" clip-rule="evenodd" d="M231.422 21.6668C232.321 21.6668 232.996 21.4446 233.671 21.2223C234.345 21.0001 234.795 20.5557 235.245 20.1112C235.695 19.6668 236.145 19.0001 236.369 18.3334C236.594 17.6668 236.819 17.0001 236.819 16.1112C236.819 15.2223 236.594 14.5557 236.369 13.889C236.145 13.2223 235.695 12.5557 235.245 12.1112C234.795 11.6668 234.12 11.2223 233.671 11.0001C232.996 10.7779 232.321 10.5557 231.422 10.5557C230.522 10.5557 229.847 10.7779 229.173 11.0001C228.498 11.2223 228.048 11.6668 227.598 12.1112C227.149 12.5557 226.699 13.2223 226.474 13.889C226.249 14.5557 226.024 15.2223 226.024 16.1112C226.024 17.0001 226.249 17.6668 226.474 18.3334C226.699 19.0001 227.149 19.6668 227.598 20.1112C228.048 20.5557 228.723 21.0001 229.173 21.2223C229.847 21.4446 230.747 21.6668 231.422 21.6668ZM231.422 19.4446C230.972 19.4446 230.297 19.2223 230.072 19.0001C229.622 18.7779 229.398 18.3334 229.173 17.889C228.948 17.4446 228.948 16.7779 228.948 16.1112C228.948 15.4446 228.948 15.0001 229.173 14.3334C229.398 13.889 229.622 13.4446 230.072 13.2223C230.522 13.0001 230.972 12.7779 231.422 12.7779C231.871 12.7779 232.546 13.0001 232.771 13.2223C233.221 13.4446 233.446 13.889 233.671 14.3334C233.896 15.0001 233.896 15.4446 233.896 16.1112C233.896 16.7779 233.896 17.4446 233.671 17.889C233.446 18.3334 233.221 18.7779 232.771 19.0001C232.546 19.2223 232.096 19.4446 231.422 19.4446Z" fill="#E7DFD3"/>
<path fill-rule="evenodd" clip-rule="evenodd" d="M238.618 21.4446H241.317V14.1112C241.767 13.889 242.217 13.4446 242.442 13.4446C242.892 13.2223 243.341 13.2223 243.791 13.2223C244.241 13.2223 244.466 13.2223 244.691 13.4446C244.916 13.6668 245.141 13.889 245.141 14.3334C245.141 14.7779 245.141 15.0001 245.141 15.4446V21.6668H247.839V14.3334V14.1112V13.889C248.289 13.6668 248.739 13.2223 248.964 13.2223C249.414 13.0001 249.863 13.0001 250.313 13.0001C250.763 13.0001 250.988 13.0001 251.438 13.2223C251.663 13.4446 251.888 13.6668 251.888 14.1112C251.888 14.3334 252.112 14.7779 252.112 15.2223V21.4446H254.811V14.3334C254.811 13.6668 254.811 13.0001 254.586 12.5557C254.361 12.1112 254.137 11.6668 253.912 11.4446C253.687 11.2223 253.237 11.0001 252.787 10.7779C252.337 10.5557 251.888 10.5557 251.438 10.5557C250.763 10.5557 250.313 10.7779 249.639 11.0001C248.964 11.2223 248.289 11.6668 247.614 12.1112C247.39 11.6668 246.94 11.2223 246.49 11.0001C246.04 10.7779 245.365 10.5557 244.691 10.5557C244.241 10.5557 243.791 10.5557 243.341 10.7779C242.892 11.0001 242.442 11.0001 242.217 11.2223C241.767 11.4446 241.542 11.6668 241.092 11.889L240.867 10.7779H238.618V21.4446Z" fill="#E7DFD3"/>
<path fill-rule="evenodd" clip-rule="evenodd" d="M257.51 21.4448H260.209V11.0003H257.51V21.4448ZM258.859 9.22255C259.084 9.22255 259.534 9.22255 259.759 9.00033C259.984 8.7781 260.209 8.7781 260.434 8.33366C260.659 8.11144 260.659 7.88921 260.659 7.44477C260.659 7.22255 260.659 6.7781 260.434 6.55588C260.209 6.33366 259.984 6.11144 259.759 5.88921C259.534 5.66699 259.309 5.66699 258.859 5.66699C258.635 5.66699 258.185 5.66699 257.96 5.88921C257.735 6.11144 257.51 6.11144 257.285 6.55588C257.06 6.7781 257.06 7.00033 257.06 7.44477C257.06 7.66699 257.06 8.11144 257.285 8.33366C257.51 8.55588 257.51 8.7781 257.96 9.00033C258.185 9.22255 258.41 9.22255 258.859 9.22255Z" fill="#E7DFD3"/>
<path fill-rule="evenodd" clip-rule="evenodd" d="M267.406 21.6667C267.856 21.6667 268.305 21.6667 268.755 21.4445C269.205 21.4445 269.655 21.2223 269.88 21C270.329 20.7778 270.554 20.7778 270.779 20.5556L270.104 18.7778C269.655 19 269.43 19.2223 268.98 19.2223C268.53 19.4445 268.08 19.4445 267.631 19.4445C266.956 19.4445 266.506 19.2223 266.056 19C265.607 18.7778 265.157 18.3334 264.932 17.8889C264.707 17.4445 264.482 16.7778 264.482 16.1112C264.482 15.6667 264.482 15.2223 264.707 14.7778C264.932 14.3334 265.157 14.1112 265.382 13.6667C265.607 13.4445 266.056 13.2223 266.281 13.0001C266.731 12.7778 267.181 12.7778 267.631 12.7778C268.08 12.7778 268.53 12.7778 268.98 13.0001C269.43 13.2223 269.88 13.4445 270.104 13.6667V11.4445C269.88 11.2223 269.655 11.2223 269.43 11.0001C269.205 11.0001 268.755 10.7778 268.53 10.7778C268.08 10.7778 267.856 10.7778 267.406 10.7778C266.506 10.7778 265.831 11.0001 265.157 11.2223C264.482 11.4445 263.807 11.8889 263.357 12.3334C262.908 12.7778 262.458 13.4445 262.233 14.1112C262.008 14.7778 261.783 15.4445 261.783 16.3334C261.783 17 262.008 17.8889 262.233 18.5556C262.458 19.2223 262.908 19.6667 263.357 20.3334C263.807 20.7778 264.257 21.2223 264.932 21.4445C265.831 21.4445 266.731 21.6667 267.406 21.6667Z" fill="#E7DFD3"/>
<path fill-rule="evenodd" clip-rule="evenodd" d="M271.904 20.5557C272.129 20.7779 272.578 21.0002 273.028 21.0002C273.478 21.2224 273.928 21.2224 274.378 21.4446C274.827 21.4446 275.277 21.6668 275.952 21.6668C276.627 21.6668 277.076 21.6668 277.526 21.4446C277.976 21.2224 278.426 21.2224 278.876 20.7779C279.325 20.5557 279.55 20.1113 279.775 19.6668C280 19.2224 280.225 18.7779 280.225 18.1113C280.225 17.6668 280.225 17.2224 280 16.7779C279.775 16.3335 279.55 16.1113 279.325 15.8891C279.1 15.6668 278.651 15.4446 278.426 15.2224C277.976 15.0002 277.751 15.0002 277.301 14.7779C276.851 14.5557 276.627 14.5557 276.402 14.3335C276.177 14.1113 275.952 14.1113 275.727 13.8891C275.502 13.6668 275.502 13.4446 275.502 13.2224C275.502 13.0002 275.502 12.7779 275.727 12.7779C275.952 12.5557 275.952 12.5557 276.177 12.5557C276.402 12.5557 276.627 12.5557 276.851 12.5557C277.301 12.5557 277.976 12.5557 278.426 12.7779C278.876 13.0002 279.325 13.0002 279.775 13.2224V11.0002C279.325 10.7779 278.876 10.7779 278.426 10.5557C277.976 10.5557 277.301 10.3335 276.851 10.3335C275.952 10.3335 275.277 10.5557 274.827 10.7779C274.153 11.0002 273.703 11.4446 273.478 11.8891C273.253 12.3335 273.028 13.0002 273.028 13.4446C273.028 13.8891 273.028 14.3335 273.253 14.7779C273.478 15.2224 273.703 15.4446 273.928 15.6668C274.153 15.8891 274.602 16.1113 274.827 16.3335C275.277 16.5557 275.502 16.5557 275.952 16.7779C276.402 17.0002 276.627 17.0002 276.851 17.2224C277.076 17.4446 277.301 17.4446 277.526 17.6668C277.751 17.8891 277.751 18.1113 277.751 18.3335C277.751 18.5557 277.751 18.7779 277.526 19.0002C277.301 19.2224 277.076 19.2224 276.851 19.4446C276.627 19.4446 276.177 19.4446 275.952 19.4446C275.502 19.4446 274.827 19.4446 274.378 19.2224C273.928 19.0002 273.478 18.7779 273.028 18.5557L271.904 20.5557Z" fill="#E7DFD3"/>
<path fill-rule="evenodd" clip-rule="evenodd" d="M78.0402 9.44455C73.0924 9.66678 69.7189 13.6668 69.9438 18.3334C70.1687 22.7779 73.992 26.5557 78.9398 26.3334C85.012 26.1112 88.8353 19.4446 86.1365 14.1112C85.6867 13.2223 85.012 12.3334 84.3373 11.6668C83.4377 11.0001 82.763 10.5557 81.6385 10.1112C80.7389 9.44455 79.3895 9.22233 78.0402 9.44455ZM93.5582 0.555664C94.9076 0.555664 95.8072 1.44455 95.8072 2.77789C95.8072 4.77789 92.2088 5.44455 93.5582 9.22233C93.7831 9.66678 94.4578 11.0001 94.9076 12.3334C96.4819 17.0001 95.8072 22.1112 93.3333 26.3334C92.2088 28.1112 90.4096 29.4446 91.0843 31.6668C91.759 34.3334 93.7831 34.7779 96.0321 34.3334C97.6064 33.889 99.4056 33.4446 101.655 33.6668C106.602 34.3334 110.201 37.6668 112 41.2223C114.249 45.889 113.574 51.2223 110.875 55.0001C108.177 58.7779 103.679 61.0001 98.7309 60.5557C95.1325 60.3334 91.9839 58.5557 89.9598 56.1112C89.7349 55.6668 89.2851 55.2223 89.2851 54.7779C89.0602 53.6668 89.51 52.3334 90.4096 51.6668C90.6345 51.4446 90.8594 51.2223 91.0843 51.2223C91.9839 50.7779 92.4337 50.5557 93.7831 50.5557C94.6827 50.5557 95.8072 51.0001 96.257 51.4446C97.8313 52.7779 100.305 53.2223 102.329 52.3334C107.052 50.3334 107.052 43.6668 102.104 41.889C98.9558 40.7779 95.3574 42.5557 94.4578 45.6668C94.4578 46.1112 94.4578 46.3334 94.2329 46.5557C93.1084 48.7779 89.9598 49.0001 88.1606 47.889C87.261 47.4446 86.5863 46.3334 86.8112 45.0001C87.0361 43.4446 87.4859 42.3334 88.1606 41.2223C89.51 39.0001 91.0843 37.2223 89.0602 34.7779C87.261 32.5557 85.4618 33.4446 83.2128 34.1112C82.0883 34.5557 80.9639 34.7779 79.8393 34.7779C77.1406 35.0001 74.4418 34.5557 72.1928 33.6668C71.0683 33.2223 70.1687 32.7779 69.2691 32.1112C68.8193 31.889 68.3695 31.4446 67.9197 31.2223C67.4699 30.7779 67.0201 30.5557 66.7952 30.1112C64.996 28.3334 63.4217 26.1112 62.5221 23.4446C61.8474 21.6668 60.7229 19.889 58.9237 19.889C56 19.889 54.6506 22.1112 54.6506 24.5557C54.6506 25.6668 54.6506 27.6668 54.6506 28.3334C54.6506 29.889 54.6506 30.7779 53.751 31.889C51.502 35.0001 46.7791 34.5557 45.2048 31.2223C44.5301 29.889 44.755 28.7779 44.755 27.2223V18.3334C44.755 15.0001 44.9799 13.0001 43.1807 11.2223C41.3815 9.44455 38.9076 9.00011 36.4337 9.66678C34.4096 10.3334 32.6104 11.889 32.1606 14.3334C32.1606 15.0001 32.1606 22.1112 32.1606 23.2223C32.1606 24.7779 32.3855 25.889 31.7108 27.2223C30.3614 30.5557 25.8635 31.4446 23.1647 28.3334C22.49 27.4446 22.0402 26.3334 22.0402 25.0001V16.1112C22.0402 13.6668 21.1406 11.6668 18.8916 10.3334C15.743 7.889 11.6948 9.66678 10.3454 12.7779C9.22088 15.4446 10.3454 18.3334 9.44578 20.7779C8.77108 22.5557 6.52209 24.3334 3.82329 23.4446C2.6988 23.2223 1.7992 22.5557 1.1245 21.6668C0.2249 20.5557 0 19.889 0 18.1112V13.889C0 12.3334 0.2249 11.2223 0.449799 9.889C2.92369 1.889 12.8193 -1.88878 20.4659 2.33344C21.3655 2.77789 22.49 3.44455 22.9398 4.11122C24.739 5.889 27.4377 6.33344 29.6867 5.22233C31.261 4.55566 31.4859 3.22233 35.0843 1.66678C37.3333 0.777886 40.0321 0.333442 42.7309 0.777886C48.5783 1.66678 54.4257 6.55566 54.4257 12.7779C54.6506 14.7779 56.4498 16.1112 58.249 16.1112C61.6225 16.1112 61.8474 13.2223 62.747 11.0001C64.996 5.889 69.494 2.11122 74.8916 1.00011C78.7149 0.11122 82.763 0.777886 86.1365 2.33344C87.261 3.00011 88.6104 3.00011 89.7349 2.55566C91.3092 2.11122 92.4337 0.555664 93.5582 0.555664Z" fill="#E7DFD3"/>
</g>
<defs>
<clipPath id="clip034">
<rect width="280" height="60" fill="white" transform="translate(0 0.555664)"/>
</clipPath>
</defs>
</svg>
