<svg width="45" height="46" viewBox="0 0 45 46" fill="none" xmlns="http://www.w3.org/2000/svg">
<circle cx="22.5" cy="23.0557" r="22" transform="rotate(-90 22.5 23.0557)" fill="white" stroke="#E7DFD3"/>
<path d="M25.4358 28.9272L19.5641 23.0556L25.4358 17.1839" stroke="#A39382" stroke-width="2"/>
</svg>
