<svg width="9" height="10" viewBox="0 0 9 10" fill="none" xmlns="http://www.w3.org/2000/svg">
<path d="M4.19224 9.18069L8.51392 2.53223L7.74084 2.02971L3.87438 7.97786L0.941235 6.07123L0.48601 6.77155L4.19224 9.18069Z" fill="#463A34"/>
</svg>
