<svg width="216" height="48" viewBox="0 0 216 48" fill="none" xmlns="http://www.w3.org/2000/svg">
<g clip-path="url(#clip0)">
<path fill-rule="evenodd" clip-rule="evenodd" d="M108.289 12.9777V12.6222C108.289 11.7333 108.116 10.8444 107.943 10.3111C107.598 9.59996 107.253 9.06662 106.735 8.71107C106.217 8.35551 105.526 8.17773 104.835 8.17773C104.317 8.17773 103.799 8.35551 103.281 8.53329C102.59 8.71107 102.245 8.88885 101.899 9.42218C101.554 9.77773 101.381 10.3111 101.209 10.8444C101.036 11.3777 101.036 11.9111 101.036 12.6222C101.036 13.1555 101.036 13.5111 101.209 13.8666C101.381 14.2222 101.381 14.7555 101.727 15.1111C101.899 15.4666 102.245 15.8222 102.59 16C102.935 16.3555 103.281 16.5333 103.799 16.7111C104.317 16.8888 104.835 16.8888 105.353 16.8888C105.871 16.8888 106.389 16.8888 106.907 16.7111C107.08 16.5333 107.598 16.3555 107.943 16L107.253 14.5777C106.907 14.7555 106.735 14.9333 106.389 14.9333C106.044 15.1111 105.698 15.1111 105.353 15.1111C104.835 15.1111 104.49 14.9333 104.144 14.9333C103.799 14.7555 103.626 14.4 103.281 14.2222C103.108 13.8666 102.935 13.5111 102.935 13.1555H108.289V12.9777ZM103.108 11.5555C103.108 11.2 103.108 10.8444 103.281 10.6666C103.453 10.3111 103.626 10.1333 103.799 9.95551C103.972 9.77773 104.317 9.77773 104.662 9.77773C105.008 9.77773 105.18 9.77773 105.353 9.95551C105.526 10.1333 105.698 10.1333 105.871 10.3111C106.044 10.4888 106.044 10.6666 106.217 10.8444C106.217 11.0222 106.389 11.3777 106.389 11.5555H103.108Z" fill="#A39382"/>
<path fill-rule="evenodd" clip-rule="evenodd" d="M113.988 16.8889C114.333 16.8889 114.678 16.8889 115.024 16.8889C115.369 16.8889 115.715 16.7111 116.06 16.7111C116.405 16.5333 116.751 16.5333 116.923 16.3555V4.08887H114.851V8.17776C114.678 8.17776 114.678 8.17776 114.506 8.17776C114.333 8.17776 114.16 8.17776 114.16 8.17776C113.988 8.17776 113.988 8.17776 113.815 8.17776C113.124 8.17776 112.606 8.35553 112.088 8.53331C111.57 8.71109 111.052 9.06664 110.707 9.4222C110.361 9.77776 110.016 10.3111 109.843 10.8444C109.67 11.3778 109.498 11.9111 109.498 12.6222C109.498 13.3333 109.67 13.8666 109.843 14.4C110.016 14.9333 110.361 15.4666 110.879 15.8222C111.225 16 111.57 16.3555 112.261 16.5333C112.779 16.7111 113.297 16.8889 113.988 16.8889ZM113.988 15.1111C113.47 15.1111 113.124 14.9333 112.606 14.7555C112.261 14.5778 112.088 14.2222 111.743 13.8666C111.57 13.5111 111.397 12.9778 111.397 12.4444C111.397 11.9111 111.57 11.3778 111.743 11.0222C112.088 10.6666 112.261 10.3111 112.779 10.1333C113.124 9.95553 113.642 9.77776 113.988 9.77776C114.16 9.77776 114.333 9.77776 114.506 9.77776C114.678 9.77776 114.851 9.77776 115.024 9.77776V14.7555C114.851 14.7555 114.851 14.7555 114.678 14.7555C114.506 14.7555 114.506 14.7555 114.333 14.7555C114.16 15.1111 114.16 15.1111 113.988 15.1111Z" fill="#A39382"/>
<path fill-rule="evenodd" clip-rule="evenodd" d="M118.996 16.7111H121.068V8.35553H118.996V16.7111ZM120.032 6.93331C120.205 6.93331 120.55 6.93331 120.723 6.75553C120.895 6.57776 121.068 6.57776 121.241 6.2222C121.413 6.04442 121.413 5.86664 121.413 5.51109C121.413 5.33331 121.413 4.97776 121.241 4.79998C121.068 4.6222 120.895 4.44442 120.723 4.26665C120.55 4.08887 120.377 4.08887 120.032 4.08887C119.859 4.08887 119.514 4.08887 119.341 4.26665C119.168 4.6222 119.168 4.79998 118.996 4.97776C118.823 5.15553 118.823 5.33331 118.823 5.68887C118.823 5.86665 118.823 6.2222 118.996 6.39998C119.168 6.57776 119.168 6.57776 119.514 6.75553C119.686 6.93331 119.859 6.93331 120.032 6.93331Z" fill="#A39382"/>
<path fill-rule="evenodd" clip-rule="evenodd" d="M87.0479 16.7111H89.1201V10.8444C89.4655 10.6667 89.8109 10.3111 89.9836 10.3111C90.329 10.1333 90.6744 10.1333 91.0197 10.1333C91.3651 10.1333 91.5378 10.1333 91.7105 10.3111C91.8832 10.4889 92.0559 10.6667 92.0559 11.0222C92.0559 11.3778 92.0559 11.5556 92.0559 11.9111V16.8889H94.1282V11.0222V10.8444V10.6667C94.4736 10.4889 94.8189 10.1333 94.9916 10.1333C95.337 9.95556 95.6824 9.95556 96.0278 9.95556C96.3732 9.95556 96.7185 9.95556 96.8912 10.1333C97.0639 10.3111 97.2366 10.4889 97.2366 10.8444C97.2366 11.0222 97.4093 11.3778 97.4093 11.7333V16.7111H99.4816V11.0222C99.4816 10.4889 99.4816 9.95556 99.3089 9.6C99.1362 9.24444 98.9635 8.88889 98.7908 8.71111C98.6181 8.53333 98.2728 8.35556 97.9274 8.17778C97.582 8 97.2366 8 96.8912 8C96.3732 8 96.0278 8.17778 95.5097 8.35556C94.9916 8.53333 94.4736 8.88889 93.9555 9.24444C93.7828 8.88889 93.4374 8.53333 93.092 8.35556C92.7467 8.17778 92.2286 8 91.7105 8C91.3651 8 91.0197 8 90.6744 8.17778C90.329 8.35556 89.9836 8.35556 89.8109 8.53333C89.4655 8.71111 89.2928 8.88889 88.9474 9.06667L88.7748 8.17778H87.0479V16.7111Z" fill="#A39382"/>
<path fill-rule="evenodd" clip-rule="evenodd" d="M126.767 16.8888C127.112 16.8888 127.457 16.8888 127.803 16.7111C128.148 16.7111 128.494 16.5333 128.666 16.3555C129.184 16.3555 129.357 16.1777 129.53 16L129.012 14.5777C128.666 14.7555 128.494 14.9333 128.148 14.9333C127.803 15.1111 127.457 15.1111 127.112 15.1111C126.594 15.1111 126.249 14.9333 125.903 14.7555C125.558 14.5777 125.212 14.2222 125.04 13.8666C124.867 13.5111 124.694 12.9777 124.694 12.4444C124.694 12.0888 124.694 11.7333 124.867 11.3777C125.04 11.0222 125.212 10.8444 125.385 10.4888C125.558 10.3111 125.903 10.1333 126.076 9.95551C126.421 9.77773 126.767 9.77773 127.112 9.77773C127.457 9.77773 127.803 9.77773 128.148 9.95551C128.494 10.1333 128.839 10.3111 129.012 10.4888V8.71107C128.839 8.53329 128.666 8.53329 128.494 8.35551C128.321 8.35551 127.976 8.17773 127.803 8.17773C127.457 8.17773 127.285 8.17773 126.939 8.17773C126.249 8.17773 125.731 8.35551 125.212 8.53329C124.867 8.71107 124.349 8.88885 124.004 9.42218C123.658 9.77773 123.313 10.3111 123.14 10.8444C122.967 11.3777 122.795 11.9111 122.795 12.6222C122.795 13.1555 122.967 13.8666 123.14 14.4C123.313 14.9333 123.658 15.2888 124.004 15.8222C124.349 16.1777 124.694 16.5333 125.212 16.7111C125.558 16.7111 126.076 16.8888 126.767 16.8888Z" fill="#A39382"/>
<path fill-rule="evenodd" clip-rule="evenodd" d="M135.747 16.7111H137.474C137.474 16.5333 137.301 16.1777 137.301 15.8222C137.301 15.4666 137.301 15.1111 137.301 14.5777V11.2C137.301 10.1333 136.956 9.42218 136.437 8.88885C135.919 8.35551 135.056 8.17773 134.02 8.17773C133.502 8.17773 132.984 8.17773 132.466 8.35551C131.775 8.35551 131.257 8.71107 130.911 8.88885L131.602 10.3111C131.947 10.1333 132.293 9.95551 132.638 9.95551C132.984 9.77773 133.329 9.77773 133.847 9.77773C134.192 9.77773 134.365 9.77773 134.711 9.95551C134.883 10.1333 135.056 10.1333 135.229 10.4888C135.401 10.6666 135.401 11.0222 135.401 11.2V11.3777H134.02C133.674 11.3777 133.156 11.3777 132.811 11.5555C132.466 11.5555 132.12 11.7333 131.775 11.9111C131.257 12.0888 130.911 12.4444 130.739 12.8C130.566 13.1555 130.393 13.6888 130.393 14.2222C130.393 14.7555 130.566 15.2888 130.739 15.6444C130.911 16 131.257 16.3555 131.602 16.5333C131.947 16.7111 132.466 16.8888 132.984 16.8888C133.329 16.8888 133.674 16.8888 133.847 16.7111C134.192 16.7111 134.365 16.5333 134.538 16.3555C134.711 16.1777 135.056 16 135.229 15.8222L135.747 16.7111ZM135.229 12.8V14.5777C135.056 14.5777 135.056 14.7555 134.883 14.7555C134.711 14.9333 134.538 14.9333 134.365 14.9333C134.192 14.9333 134.02 15.1111 133.674 15.1111C133.329 15.1111 132.984 14.9333 132.811 14.7555C132.638 14.5777 132.466 14.2222 132.466 13.8666C132.466 13.6888 132.466 13.5111 132.638 13.3333C132.638 13.1555 132.811 12.9777 132.984 12.9777C133.156 12.9777 133.329 12.8 133.502 12.8C133.674 12.8 133.847 12.8 134.192 12.8H135.229Z" fill="#A39382"/>
<path fill-rule="evenodd" clip-rule="evenodd" d="M139.2 14.7555C139.2 15.4666 139.373 16 139.718 16.1778C140.064 16.5333 140.582 16.7111 141.273 16.7111C141.445 16.7111 141.791 16.7111 141.963 16.7111C142.309 16.7111 142.482 16.5333 142.654 16.5333L142.309 14.9333C142.136 14.9333 142.136 14.9333 141.963 14.9333C141.791 14.9333 141.791 14.9333 141.791 14.9333C141.618 14.9333 141.445 14.9333 141.273 14.7555C141.1 14.5778 141.1 14.4 141.1 14.2222V4.08887H139.028V14.7555H139.2Z" fill="#A39382"/>
<path fill-rule="evenodd" clip-rule="evenodd" d="M150.771 20.8001C151.461 20.8001 152.152 20.8001 152.67 20.6223C153.188 20.4445 153.706 20.2668 154.052 20.089C154.397 19.9112 154.743 19.5556 154.915 19.2001C155.088 18.8445 155.261 18.489 155.261 18.1334C155.261 17.7779 155.261 17.4223 155.088 17.2445C154.915 17.0668 154.743 16.7112 154.397 16.5334C154.052 16.3556 153.706 16.1779 153.361 16.0001C153.016 15.8223 152.67 15.8223 152.325 15.8223C151.979 15.8223 151.634 15.6445 151.289 15.6445C150.943 15.6445 150.771 15.4668 150.425 15.4668C150.253 15.4668 149.907 15.289 149.735 15.289C149.562 15.1112 149.562 15.1112 149.562 14.9334C149.562 14.9334 149.562 14.7556 149.562 14.5779C149.562 14.4001 149.562 14.4001 149.735 14.2223C149.907 14.2223 150.08 14.2223 150.253 14.4001C150.425 14.4001 150.598 14.4001 150.771 14.4001C151.289 14.4001 151.634 14.4001 152.152 14.2223C152.498 14.0445 152.843 13.8668 153.188 13.5112C153.534 13.1556 153.706 12.9779 153.879 12.6223C154.052 12.2668 154.052 11.7334 154.052 11.3779C154.052 11.0223 154.052 10.6668 153.879 10.3112C153.706 9.95564 153.534 9.60009 153.361 9.42231C153.534 9.42231 153.534 9.42231 153.706 9.24453C153.879 9.24453 153.879 9.24453 154.052 9.24453C154.224 9.24453 154.224 9.24453 154.397 9.24453C154.57 9.24453 154.57 9.24453 154.743 9.24453L155.088 7.64453H154.915C154.743 7.64453 154.743 7.64453 154.57 7.64453C154.224 7.64453 153.879 7.64453 153.706 7.64453C153.534 7.64453 153.188 7.82231 153.016 7.82231C152.843 8.00009 152.67 8.00009 152.498 8.17786C152.498 8.17786 152.498 8.17786 152.325 8.17786C152.325 8.17786 152.325 8.17786 152.152 8.17786C151.979 8.00009 151.807 8.00009 151.461 8.00009C151.116 8.00009 150.943 7.82231 150.425 7.82231C149.907 7.82231 149.389 8.00009 149.044 8.00009C148.698 8.17786 148.353 8.35564 148.008 8.7112C147.662 9.06675 147.49 9.24453 147.317 9.77786C147.144 10.1334 147.144 10.489 147.144 10.8445C147.144 11.2001 147.144 11.5556 147.317 11.9112C147.49 12.2668 147.662 12.6223 147.835 12.8001C148.008 12.9779 148.353 13.3334 148.526 13.5112C148.18 13.689 148.008 14.0445 147.835 14.2223C147.662 14.5779 147.662 14.7556 147.662 14.9334C147.662 15.8223 148.353 16.3556 149.216 16.5334C149.562 16.7112 150.08 16.7112 150.598 16.7112C150.943 16.7112 151.116 16.7112 151.461 16.889C151.807 16.889 151.979 17.0668 152.152 17.0668C152.325 17.0668 152.498 17.2445 152.67 17.4223C152.843 17.6001 152.843 17.7779 152.843 17.9556C152.843 18.1334 152.67 18.3112 152.498 18.489C152.325 18.6668 152.152 18.8445 151.807 18.8445C151.461 18.8445 151.116 19.0223 150.771 19.0223C150.253 19.0223 149.907 19.0223 149.562 18.8445C149.216 18.8445 149.044 18.6668 148.871 18.489C148.526 18.1334 148.18 18.1334 147.835 18.3112L147.317 18.6668C147.144 18.6668 147.144 18.8445 147.144 19.0223C147.144 19.2001 147.144 19.3779 147.317 19.3779C147.662 19.7334 148.18 20.089 148.698 20.2668C149.389 20.8001 150.08 20.8001 150.771 20.8001ZM150.943 12.8001C150.598 12.8001 150.425 12.8001 150.253 12.6223C150.08 12.4445 149.907 12.2668 149.735 12.089C149.562 11.9112 149.562 11.5556 149.562 11.3779C149.562 11.0223 149.562 10.8445 149.735 10.489C149.907 10.3112 150.08 10.1334 150.253 9.95564C150.425 9.77786 150.771 9.77786 150.943 9.77786C151.289 9.77786 151.461 9.77786 151.807 9.95564C151.98 10.1334 152.152 10.3112 152.325 10.489C152.498 10.6668 152.498 11.0223 152.498 11.2001C152.498 11.5556 152.498 11.7334 152.325 12.089C152.152 12.2668 151.98 12.4445 151.634 12.6223C151.461 12.8001 151.289 12.8001 150.943 12.8001Z" fill="#A39382"/>
<path fill-rule="evenodd" clip-rule="evenodd" d="M163.377 12.9777V12.6222C163.377 11.7333 163.204 10.8444 163.032 10.3111C162.686 9.59996 162.341 9.06662 161.823 8.71107C161.305 8.35551 160.614 8.17773 159.923 8.17773C159.405 8.17773 158.887 8.35551 158.369 8.53329C157.851 8.71107 157.506 9.06662 157.16 9.42218C156.815 9.77773 156.642 10.3111 156.47 10.8444C156.297 11.3777 156.297 11.9111 156.297 12.6222C156.297 13.1555 156.297 13.5111 156.47 13.8666C156.642 14.2222 156.642 14.7555 156.988 15.1111C156.815 15.2888 157.16 15.6444 157.506 16C157.851 16.3555 158.196 16.5333 158.715 16.7111C159.233 16.8888 159.751 16.8888 160.269 16.8888C160.787 16.8888 161.305 16.8888 161.823 16.7111C162.341 16.5333 162.686 16.3555 163.204 16.1777L162.514 14.7555C162.168 14.9333 161.996 15.1111 161.65 15.1111C161.305 15.2888 160.96 15.2888 160.614 15.2888C160.096 15.2888 159.751 15.1111 159.405 15.1111C158.887 14.7555 158.542 14.4 158.369 14.2222C158.196 13.8666 158.024 13.5111 158.024 13.1555H163.377V12.9777ZM158.024 11.5555C158.024 11.2 158.024 10.8444 158.196 10.6666C158.369 10.3111 158.542 10.1333 158.715 9.95551C158.887 9.77773 159.233 9.77773 159.578 9.77773C159.923 9.77773 160.096 9.77773 160.269 9.95551C160.441 10.1333 160.614 10.1333 160.787 10.3111C160.96 10.4888 160.96 10.6666 161.132 10.8444C161.132 11.0222 161.305 11.3777 161.305 11.5555H158.024Z" fill="#A39382"/>
<path fill-rule="evenodd" clip-rule="evenodd" d="M164.759 16.7111H166.831V10.8444C167.176 10.6666 167.522 10.3111 167.867 10.1333C168.213 9.95551 168.558 9.95551 168.903 9.95551C169.249 9.95551 169.594 9.95551 169.767 10.1333C169.939 10.3111 170.112 10.4888 170.112 10.8444C170.112 11.2 170.285 11.3777 170.285 11.7333V16.5333H172.357V11.2C172.357 10.6666 172.357 10.1333 172.184 9.77773C172.012 9.42218 171.839 9.06662 171.666 8.88885C171.494 8.71107 171.148 8.53329 170.803 8.35551C170.458 8.17773 170.112 8.17773 169.939 8.17773C169.421 8.17773 168.903 8.35551 168.558 8.53329C168.04 8.71107 167.694 9.06662 167.176 9.42218L167.004 8.53329H165.277V16.7111H164.759Z" fill="#A39382"/>
<path fill-rule="evenodd" clip-rule="evenodd" d="M177.71 16.8889C178.401 16.8889 178.919 16.7111 179.437 16.5333C179.955 16.3556 180.301 16 180.646 15.6444C180.992 15.2889 181.337 14.7556 181.51 14.2222C181.682 13.6889 181.855 13.1556 181.855 12.4444C181.855 11.7333 181.682 11.2 181.51 10.6667C181.337 10.1333 180.992 9.6 180.646 9.24444C180.301 8.88889 179.783 8.53333 179.437 8.35556C178.919 8.17778 178.401 8 177.71 8C177.02 8 176.502 8.17778 175.984 8.35556C175.466 8.53333 175.12 8.88889 174.775 9.24444C174.429 9.6 174.084 10.1333 173.911 10.6667C173.739 11.2 173.566 11.7333 173.566 12.4444C173.566 13.1556 173.739 13.6889 173.911 14.2222C174.084 14.7556 174.429 15.2889 174.775 15.6444C175.12 16 175.638 16.3556 175.984 16.5333C176.502 16.7111 177.192 16.8889 177.71 16.8889ZM177.71 15.1111C177.365 15.1111 176.847 14.9333 176.674 14.7556C176.329 14.5778 176.156 14.2222 175.984 13.8667C175.811 13.5111 175.811 12.9778 175.811 12.4444C175.811 11.9111 175.811 11.5556 175.984 11.0222C176.156 10.6667 176.329 10.3111 176.674 10.1333C177.02 9.95556 177.365 9.77778 177.71 9.77778C178.056 9.77778 178.574 9.95556 178.747 10.1333C179.092 10.3111 179.265 10.6667 179.437 11.0222C179.61 11.5556 179.61 11.9111 179.61 12.4444C179.61 12.9778 179.61 13.5111 179.437 13.8667C179.265 14.2222 179.092 14.5778 178.747 14.7556C178.574 14.9333 178.229 15.1111 177.71 15.1111Z" fill="#A39382"/>
<path fill-rule="evenodd" clip-rule="evenodd" d="M183.237 16.7111H185.309V10.8444C185.654 10.6667 186 10.3111 186.172 10.3111C186.518 10.1333 186.863 10.1333 187.208 10.1333C187.554 10.1333 187.727 10.1333 187.899 10.3111C188.072 10.4889 188.245 10.6667 188.245 11.0222C188.245 11.3778 188.245 11.5556 188.245 11.9111V16.8889H190.317V11.0222V10.8444V10.6667C190.662 10.4889 191.008 10.1333 191.18 10.1333C191.526 9.95556 191.871 9.95556 192.217 9.95556C192.562 9.95556 192.735 9.95556 193.08 10.1333C193.253 10.3111 193.425 10.4889 193.425 10.8444C193.425 11.0222 193.598 11.3778 193.598 11.7333V16.7111H195.67V11.0222C195.67 10.4889 195.67 9.95556 195.498 9.6C195.325 9.24444 195.152 8.88889 194.98 8.71111C194.807 8.53333 194.461 8.35556 194.116 8.17778C193.771 8 193.425 8 193.08 8C192.562 8 192.217 8.17778 191.698 8.35556C191.18 8.53333 190.662 8.88889 190.144 9.24444C189.972 8.88889 189.626 8.53333 189.281 8.35556C188.935 8.17778 188.417 8 187.899 8C187.554 8 187.208 8 186.863 8.17778C186.518 8.35556 186.172 8.35556 186 8.53333C185.654 8.71111 185.482 8.88889 185.136 9.06667L184.963 8.17778H183.237V16.7111Z" fill="#A39382"/>
<path fill-rule="evenodd" clip-rule="evenodd" d="M197.743 16.7111H199.815V8.35553H197.743V16.7111ZM198.779 6.93331C198.952 6.93331 199.297 6.93331 199.47 6.75553C199.642 6.57776 199.815 6.57776 199.988 6.2222C200.16 6.04442 200.16 5.86664 200.16 5.51109C200.16 5.33331 200.16 4.97776 199.988 4.79998C199.815 4.6222 199.642 4.44442 199.47 4.26665C199.297 4.08887 199.124 4.08887 198.779 4.08887C198.606 4.08887 198.261 4.08887 198.088 4.26665C197.915 4.44442 197.743 4.44442 197.57 4.79998C197.397 4.97776 197.397 5.15553 197.397 5.51109C197.397 5.68887 197.397 6.04442 197.57 6.2222C197.743 6.39998 197.743 6.57776 198.088 6.75553C198.261 6.93331 198.433 6.93331 198.779 6.93331Z" fill="#A39382"/>
<path fill-rule="evenodd" clip-rule="evenodd" d="M205.341 16.8888C205.686 16.8888 206.032 16.8888 206.377 16.7111C206.723 16.7111 207.068 16.5333 207.241 16.3555C207.586 16.1777 207.759 16.1777 207.931 16L207.413 14.5777C207.068 14.7555 206.895 14.9333 206.55 14.9333C206.205 15.1111 205.859 15.1111 205.514 15.1111C204.996 15.1111 204.65 14.9333 204.305 14.7555C203.96 14.5777 203.614 14.2222 203.441 13.8666C203.269 13.5111 203.096 12.9777 203.096 12.4444C203.096 12.0888 203.096 11.7333 203.269 11.3777C203.441 11.0222 203.614 10.8444 203.787 10.4888C203.96 10.3111 204.305 10.1333 204.478 9.95551C204.823 9.77773 205.168 9.77773 205.514 9.77773C205.859 9.77773 206.205 9.77773 206.55 9.95551C206.895 10.1333 207.241 10.3111 207.413 10.4888V8.71107C207.241 8.53329 207.068 8.53329 206.895 8.35551C206.723 8.35551 206.377 8.17773 206.205 8.17773C205.859 8.17773 205.686 8.17773 205.341 8.17773C204.65 8.17773 204.132 8.35551 203.614 8.53329C203.096 8.71107 202.578 9.06662 202.233 9.42218C201.887 9.77773 201.542 10.3111 201.369 10.8444C201.196 11.3777 201.024 11.9111 201.024 12.6222C201.024 13.1555 201.196 13.8666 201.369 14.4C201.542 14.9333 201.887 15.2888 202.233 15.8222C202.578 16.1777 202.923 16.5333 203.441 16.7111C204.132 16.7111 204.823 16.8888 205.341 16.8888Z" fill="#A39382"/>
<path fill-rule="evenodd" clip-rule="evenodd" d="M208.795 16C208.968 16.1778 209.313 16.3556 209.658 16.3556C210.004 16.5334 210.349 16.5334 210.695 16.7112C211.04 16.7112 211.385 16.8889 211.903 16.8889C212.421 16.8889 212.767 16.8889 213.112 16.7112C213.458 16.5334 213.803 16.5334 214.148 16.1778C214.494 16 214.666 15.6445 214.839 15.2889C215.012 14.9334 215.184 14.5778 215.184 14.0445C215.184 13.6889 215.184 13.3334 215.012 12.9778C214.839 12.6223 214.666 12.4445 214.494 12.2667C214.321 12.0889 213.976 11.9112 213.803 11.7334C213.458 11.5556 213.285 11.5556 212.939 11.3778C212.594 11.2 212.421 11.2 212.249 11.0223C212.076 10.8445 211.903 10.8445 211.731 10.6667C211.558 10.4889 211.558 10.3112 211.558 10.1334C211.558 9.9556 211.558 9.77782 211.731 9.77782C211.903 9.60004 211.903 9.60004 212.076 9.60004C212.249 9.60004 212.421 9.60004 212.594 9.60004C212.939 9.60004 213.458 9.60004 213.803 9.77782C214.148 9.9556 214.494 9.9556 214.839 10.1334V8.3556C214.494 8.17782 214.148 8.17782 213.803 8.00004C213.458 8.00004 212.939 7.82227 212.594 7.82227C211.903 7.82227 211.385 8.00004 211.04 8.17782C210.522 8.3556 210.176 8.71115 210.004 9.06671C209.831 9.42227 209.658 9.9556 209.658 10.3112C209.658 10.6667 209.658 11.0223 209.831 11.3778C210.004 11.7334 210.176 11.9112 210.349 12.0889C210.522 12.2667 210.867 12.4445 211.04 12.6223C211.385 12.8 211.558 12.8 211.903 12.9778C212.249 13.1556 212.421 13.1556 212.594 13.3334C212.767 13.5112 212.939 13.5112 213.112 13.6889C213.285 13.8667 213.285 14.0445 213.285 14.2223C213.285 14.4 213.285 14.5778 213.112 14.7556C212.939 14.9334 212.767 14.9334 212.594 15.1112C212.421 15.1112 212.076 15.1112 211.903 15.1112C211.558 15.1112 211.04 15.1112 210.695 14.9334C210.349 14.7556 210.004 14.5778 209.658 14.4L208.795 16Z" fill="#A39382"/>
<path fill-rule="evenodd" clip-rule="evenodd" d="M59.9354 7.11111C56.1362 7.28889 53.5459 10.4889 53.7185 14.2222C53.8912 17.7778 56.827 20.8 60.6262 20.6222C65.2888 20.4444 68.2246 15.1111 66.1523 10.8444C65.8069 10.1333 65.2888 9.42222 64.7708 8.88889C64.08 8.35556 63.5619 8 62.6985 7.64445C62.0077 7.11111 60.9716 6.93333 59.9354 7.11111ZM71.8511 0C72.8872 0 73.578 0.711111 73.578 1.77778C73.578 3.37778 70.8149 3.91111 71.8511 6.93333C72.0238 7.28889 72.5418 8.35556 72.8872 9.42222C74.0961 13.1556 73.578 17.2444 71.6784 20.6222C70.8149 22.0444 69.4334 23.1111 69.9515 24.8889C70.4695 27.0222 72.0238 27.3778 73.7507 27.0222C74.9595 26.6667 76.341 26.3111 78.0679 26.4889C81.8671 27.0222 84.6302 29.6889 86.0117 32.5333C87.7386 36.2667 87.2205 40.5333 85.1483 43.5556C83.076 46.5778 79.6222 48.3556 75.823 48C73.0599 47.8222 70.6422 46.4 69.088 44.4444C68.9153 44.0889 68.5699 43.7333 68.5699 43.3778C68.3973 42.4889 68.7426 41.4222 69.4334 40.8889C69.6061 40.7111 69.7788 40.5333 69.9515 40.5333C70.6422 40.1778 70.9876 40 72.0238 40C72.7145 40 73.578 40.3556 73.9234 40.7111C75.1322 41.7778 77.0318 42.1333 78.586 41.4222C82.2125 39.8222 82.2125 34.4889 78.4133 33.0667C75.9957 32.1778 73.2326 33.6 72.5418 36.0889C72.5418 36.4444 72.5418 36.6222 72.3691 36.8C71.5057 38.5778 69.088 38.7556 67.7065 37.8667C67.0157 37.5111 66.4977 36.6222 66.6703 35.5556C66.843 34.3111 67.1884 33.4222 67.7065 32.5333C68.7426 30.7556 69.9515 29.3333 68.3973 27.3778C67.0157 25.6 65.6342 26.3111 63.9073 26.8444C63.0438 27.2 62.1804 27.3778 61.3169 27.3778C59.2446 27.5556 57.1724 27.2 55.4454 26.4889C54.582 26.1333 53.8912 25.7778 53.2005 25.2444C52.8551 25.0667 52.5097 24.7111 52.1643 24.5333C51.8189 24.1778 51.4736 24 51.3009 23.6444C49.9193 22.2222 48.7105 20.4444 48.0197 18.3111C47.5017 16.8889 46.6382 15.4667 45.2567 15.4667C43.0117 15.4667 41.9756 17.2444 41.9756 19.2C41.9756 20.0889 41.9756 21.6889 41.9756 22.2222C41.9756 23.4667 41.9756 24.1778 41.2848 25.0667C39.5579 27.5556 35.9314 27.2 34.7226 24.5333C34.2045 23.4667 34.3772 22.5778 34.3772 21.3333V14.2222C34.3772 11.5556 34.5499 9.95556 33.1683 8.53333C31.7868 7.11111 29.8872 6.75556 27.9876 7.28889C26.4334 7.82222 25.0519 9.06667 24.7065 11.0222C24.7065 11.5556 24.7065 17.2444 24.7065 18.1333C24.7065 19.3778 24.8792 20.2667 24.3611 21.3333C23.325 24 19.8712 24.7111 17.7989 22.2222C17.2808 21.5111 16.9354 20.6222 16.9354 19.5556V12.4444C16.9354 10.4889 16.2446 8.88889 14.5177 7.82222C12.1001 5.86667 8.99164 7.28889 7.95549 9.77778C7.09204 11.9111 7.95549 14.2222 7.26473 16.1778C6.74666 17.6 5.01975 19.0222 2.94746 18.3111C2.08401 18.1333 1.39324 17.6 0.875172 16.8889C0.184409 16 0.0117188 15.4667 0.0117188 14.0444V10.6667C0.0117188 9.42222 0.184409 8.53333 0.3571 7.46667C2.2567 1.06667 9.85509 -1.95556 15.7266 1.42222C16.4173 1.77778 17.2808 2.31111 17.6262 2.84444C19.0077 4.26667 21.08 4.62222 22.8069 3.73333C24.0157 3.2 24.1884 2.13333 26.9515 0.888889C28.6784 0.177778 30.7507 -0.177778 32.823 0.177778C37.3129 0.888889 41.8029 4.8 41.8029 9.77778C41.9756 11.3778 43.3571 12.4444 44.7386 12.4444C47.329 12.4444 47.5017 10.1333 48.1924 8.35556C49.9193 4.26667 53.3732 1.24444 57.5177 0.355556C60.4535 -0.355556 63.5619 0.177778 66.1523 1.42222C67.0157 1.95556 68.0519 1.95556 68.9153 1.6C70.1242 1.24444 70.9876 0 71.8511 0Z" fill="#A39382"/>
</g>
<defs>
<clipPath id="clip0">
<rect width="215" height="48" fill="white" transform="translate(0.0117188)"/>
</clipPath>
</defs>
</svg>
