<svg width="26" height="26" viewBox="0 0 26 26" fill="none" xmlns="http://www.w3.org/2000/svg">
<g clip-path="url(#clip0556)">
<path d="M25.0117 13.7112C25.0117 6.81891 19.404 1.21118 12.5117 1.21118C5.61945 1.21118 0.0117188 6.81891 0.0117188 13.7112C0.0117188 17.3516 1.57717 20.633 4.06899 22.9194L4.05717 22.9298L4.46263 23.2716C4.48899 23.2939 4.51763 23.3121 4.54399 23.3339C4.75945 23.5125 4.98263 23.6821 5.2099 23.8462C5.28354 23.8994 5.35717 23.9525 5.43217 24.0044C5.6749 24.1716 5.92399 24.3303 6.17854 24.4807C6.23399 24.5135 6.2899 24.5453 6.34581 24.5771C6.62445 24.7357 6.90899 24.8853 7.20036 25.0225C7.22172 25.0325 7.24354 25.0416 7.2649 25.0516C8.21445 25.493 9.22808 25.8171 10.2881 26.0085C10.3158 26.0135 10.3435 26.0185 10.3717 26.0235C10.7008 26.0803 11.0335 26.1257 11.3704 26.1562C11.4113 26.1598 11.4522 26.1621 11.4935 26.1657C11.829 26.1935 12.1681 26.2112 12.5117 26.2112C12.8522 26.2112 13.1881 26.1935 13.5217 26.1666C13.564 26.163 13.6063 26.1607 13.6485 26.1571C13.9826 26.1266 14.3126 26.0825 14.6385 26.0266C14.6667 26.0216 14.6954 26.0166 14.7235 26.0112C15.7676 25.8239 16.7667 25.5071 17.704 25.0771C17.7385 25.0612 17.7735 25.0462 17.8081 25.0298C18.0885 24.898 18.3626 24.7557 18.6313 24.6044C18.6981 24.5666 18.7644 24.5285 18.8308 24.4894C19.0754 24.3453 19.3158 24.1948 19.5494 24.0348C19.6335 23.9775 19.7158 23.9171 19.799 23.8571C19.9985 23.7135 20.1944 23.5653 20.3849 23.4103C20.4272 23.3762 20.4726 23.3466 20.514 23.3116L20.9299 22.9644L20.9176 22.9539C23.4313 20.6666 25.0117 17.3703 25.0117 13.7112ZM0.92081 13.7112C0.92081 7.31982 6.12036 2.12027 12.5117 2.12027C18.9031 2.12027 24.1026 7.31982 24.1026 13.7112C24.1026 17.1553 22.5913 20.2516 20.1985 22.3762C20.0649 22.2839 19.9304 22.2012 19.7926 22.1321L15.944 20.208C15.5985 20.0353 15.384 19.688 15.384 19.3021V17.958C15.4731 17.848 15.5672 17.7235 15.6644 17.5866C16.1626 16.883 16.5622 16.1003 16.8535 15.258C17.4294 14.9844 17.8013 14.4107 17.8013 13.763V12.1516C17.8013 11.7575 17.6567 11.3753 17.3981 11.0748V8.95345C17.4217 8.71709 17.5054 7.38618 16.5422 6.288C15.7044 5.33164 14.3485 4.84755 12.5117 4.84755C10.6749 4.84755 9.31899 5.33164 8.48126 6.28755C7.51808 7.38573 7.60172 8.71755 7.62536 8.953V11.0744C7.36717 11.3748 7.22217 11.7571 7.22217 12.1512V13.7625C7.22217 14.263 7.44672 14.7298 7.83126 15.0448C8.19945 16.4871 8.95717 17.5789 9.23717 17.9489V19.2644C9.23717 19.6353 9.0349 19.9762 8.70899 20.1544L5.1149 22.1148C5.00036 22.1771 4.88672 22.2498 4.77308 22.3312C2.4099 20.2075 0.92081 17.1303 0.92081 13.7112Z" fill="#463A34"/>
</g>
<defs>
<clipPath id="clip0556">
<rect width="25" height="25" fill="white" transform="translate(0.0117188 0.711182)"/>
</clipPath>
</defs>
</svg>
