<svg width="33" height="32" viewBox="0 0 33 32" fill="none" xmlns="http://www.w3.org/2000/svg">
<g clip-path="url(#clip0)">
<path d="M26.6933 31.9999H5.35738C5.0637 31.9999 4.82617 31.7626 4.82617 31.4687V0.533649C4.82617 0.239971 5.0637 0.00244141 5.35738 0.00244141H21.8873C22.0311 0.00244141 22.1624 0.0588334 22.2623 0.158679L27.0619 4.95834C27.162 5.05843 27.2182 5.19587 27.2182 5.33331V31.4626C27.2245 31.7626 26.987 31.9999 26.6933 31.9999ZM5.89493 30.9314H26.1621V5.55839L21.6749 1.0712H5.89493V30.9314Z" fill="#A39382"/>
<path d="M26.6932 5.87093H21.8935C21.5998 5.87093 21.3623 5.6334 21.3623 5.33972V0.533706C21.3623 0.32132 21.4934 0.121385 21.6936 0.0400927C21.8935 -0.0411996 22.1247 0.00249808 22.2746 0.158736L27.0742 4.9584C27.2244 5.10854 27.2742 5.33972 27.1931 5.53965C27.0994 5.73959 26.9056 5.87093 26.6932 5.87093ZM22.4247 4.80216H25.4057L22.4247 1.8212V4.80216Z" fill="#A39382"/>
<path d="M26.6933 31.9999H5.35738C5.0637 31.9999 4.82617 31.7626 4.82617 31.4687V21.8696C4.82617 21.5759 5.0637 21.3384 5.35738 21.3384H26.687C26.9807 21.3384 27.2182 21.5759 27.2182 21.8696V31.4687C27.2245 31.7626 26.987 31.9999 26.6933 31.9999ZM5.89493 30.9314H26.1621V22.4008H5.89493V30.9314Z" fill="#A39382"/>
<path d="M8.55758 29.8689C8.2639 29.8689 8.02637 29.6314 8.02637 29.3377V24.0004C8.02637 23.7068 8.2639 23.4692 8.55758 23.4692C8.8515 23.4692 9.08879 23.7068 9.08879 24.0004V29.3313C9.09513 29.625 8.8515 29.8689 8.55758 29.8689Z" fill="#A39382"/>
<path d="M23.4936 24.5316H20.2939C20.0002 24.5316 19.7627 24.2944 19.7627 24.0004C19.7627 23.7068 20.0002 23.4692 20.2939 23.4692H23.4936C23.7875 23.4692 24.0248 23.7068 24.0248 24.0004C24.0248 24.2944 23.7875 24.5316 23.4936 24.5316Z" fill="#A39382"/>
<path d="M23.4936 27.2003H20.2939C20.0002 27.2003 19.7627 26.9628 19.7627 26.6691C19.7627 26.3752 20.0002 26.1379 20.2939 26.1379H23.4936C23.7875 26.1379 24.0248 26.3752 24.0248 26.6691C24.0248 26.9628 23.7875 27.2003 23.4936 27.2003Z" fill="#A39382"/>
<path d="M20.2939 29.8689C20.0002 29.8689 19.7627 29.6314 19.7627 29.3377V24.0004C19.7627 23.7068 20.0002 23.4692 20.2939 23.4692C20.5876 23.4692 20.8251 23.7068 20.8251 24.0004V29.3313C20.8251 29.625 20.5876 29.8689 20.2939 29.8689Z" fill="#A39382"/>
<path d="M22.3312 13.8204C22.1249 13.4266 21.6186 13.233 20.7876 13.233C20.3001 13.233 19.7 13.2955 19.0001 13.4205C18.0251 12.4018 17.0127 10.9144 16.2941 9.45206C16.4066 8.98335 16.5128 8.50829 16.5941 8.03323C16.6878 7.47712 16.8004 6.83972 16.6815 6.27727C16.6317 6.05219 16.5003 5.85225 16.3504 5.68357C16.2191 5.53978 16.038 5.33984 15.8253 5.33984C15.7128 5.33984 15.4067 5.38989 15.288 5.42724C14.9817 5.52733 14.8193 5.76486 14.688 6.06464C14.313 6.93347 14.8254 8.4082 15.3566 9.55191C14.9004 11.333 14.1443 13.4642 13.3443 15.1953C11.332 16.1078 10.2633 17.0013 10.1634 17.8576C10.1258 18.1701 10.2008 18.6261 10.7571 19.0324C10.907 19.1449 11.0882 19.2013 11.2696 19.2013C11.7319 19.2013 12.207 18.8512 12.7506 18.0949C13.1444 17.5452 13.5755 16.7952 14.0193 15.8639C15.4443 15.2514 17.2002 14.6953 18.7126 14.3828C19.5501 15.1765 20.3062 15.5827 20.9499 15.5827C21.425 15.5827 21.8312 15.3639 22.1312 14.9577C22.4374 14.5327 22.5062 14.1516 22.3312 13.8204ZM11.282 18.3137C11.032 18.1262 11.0508 18.0012 11.0508 17.9514C11.0821 17.6575 11.5444 17.139 12.6818 16.514C11.8257 18.0825 11.3633 18.2888 11.282 18.3137ZM15.6442 6.28337C15.6691 6.27727 16.2003 6.85852 15.6942 7.97074C14.938 7.20835 15.5878 6.30217 15.6442 6.28337ZM14.5442 14.6953C15.0817 13.4266 15.5878 12.0268 15.9628 10.7269C16.5565 11.7829 17.2752 12.8141 17.9939 13.6392C16.8629 13.8953 15.6567 14.2703 14.5442 14.6953ZM21.3998 14.4453C21.2375 14.6704 20.8813 14.6765 20.7563 14.6765C20.4751 14.6765 20.3687 14.5078 19.9312 14.1829C20.2876 14.1392 20.625 14.1265 20.8938 14.1265C21.3686 14.1265 21.4562 14.1953 21.5187 14.2329C21.5124 14.2642 21.4811 14.3328 21.3998 14.4453Z" fill="#A39382"/>
<path d="M10.1575 27.7316H8.55758C8.2639 27.7316 8.02637 27.4941 8.02637 27.2004V24.0004C8.02637 23.7068 8.2639 23.4692 8.55758 23.4692H10.1575C11.3325 23.4692 12.2887 24.4255 12.2887 25.6004C12.2948 26.7754 11.3386 27.7316 10.1575 27.7316ZM9.09513 26.6692H10.1639C10.7512 26.6692 11.2324 26.1878 11.2324 25.6004C11.2324 25.0131 10.7512 24.5317 10.1639 24.5317H9.09513V26.6692Z" fill="#A39382"/>
<path d="M14.9569 29.8689H14.4257C14.1321 29.8689 13.8945 29.6314 13.8945 29.3377V24.0004C13.8945 23.7068 14.1321 23.4692 14.4257 23.4692H14.9569C16.7193 23.4692 18.1566 24.9066 18.1566 26.6692C18.1566 28.4315 16.7256 29.8689 14.9569 29.8689ZM14.9569 24.5317V28.8001C16.1319 28.8001 17.0879 27.8439 17.0879 26.6692C17.0879 25.4942 16.138 24.5317 14.9569 24.5317Z" fill="#A39382"/>
</g>
<defs>
<clipPath id="clip0">
<rect width="32" height="32" fill="white" transform="translate(0.0117188)"/>
</clipPath>
</defs>
</svg>
