<svg width="26" height="26" viewBox="0 0 26 26" fill="none" xmlns="http://www.w3.org/2000/svg">
<path d="M19.5671 15.8819C19.55 15.8459 19.534 15.8161 19.5192 15.7921C19.2736 15.3613 18.8042 14.8326 18.1114 14.2056L18.0968 14.1913L18.0895 14.1843L18.082 14.177H18.0746C17.7602 13.8851 17.5611 13.6888 17.4777 13.5883C17.3251 13.3969 17.2909 13.2031 17.3743 13.0068C17.4332 12.8585 17.6545 12.5452 18.0377 12.0666C18.2392 11.8129 18.3988 11.6096 18.5167 11.4565C19.3668 10.3558 19.7354 9.6524 19.6223 9.34609L19.5784 9.27452C19.5489 9.23142 19.4727 9.192 19.35 9.15605C19.227 9.12017 19.0699 9.11424 18.8782 9.13815L16.7556 9.15243C16.7212 9.14056 16.6721 9.14167 16.6081 9.15605C16.5442 9.17043 16.5123 9.17765 16.5123 9.17765L16.4753 9.19562L16.446 9.21722C16.4214 9.2315 16.3944 9.25662 16.3649 9.29252C16.3355 9.32829 16.311 9.37028 16.2914 9.41813C16.0603 9.99717 15.7975 10.5355 15.5026 11.0332C15.3208 11.3299 15.1539 11.5871 15.0014 11.8049C14.8491 12.0225 14.7213 12.1829 14.6182 12.2857C14.515 12.3886 14.4218 12.4711 14.3381 12.5333C14.2545 12.5956 14.1907 12.622 14.1466 12.6123C14.1023 12.6027 14.0606 12.5932 14.0211 12.5836C13.9524 12.5405 13.8971 12.4819 13.8554 12.4077C13.8135 12.3336 13.7853 12.2402 13.7706 12.1278C13.7559 12.0152 13.7472 11.9184 13.7448 11.837C13.7425 11.7558 13.7435 11.6408 13.7485 11.4924C13.7536 11.344 13.7559 11.2436 13.7559 11.191C13.7559 11.0091 13.7596 10.8117 13.7669 10.5988C13.7743 10.3858 13.7803 10.2171 13.7854 10.0928C13.7904 9.96835 13.7927 9.83671 13.7927 9.69793C13.7927 9.55915 13.784 9.45031 13.7669 9.37131C13.7499 9.29242 13.7239 9.21584 13.6897 9.14159C13.6552 9.06742 13.6048 9.01005 13.5386 8.96932C13.4723 8.92864 13.3898 8.89636 13.2917 8.87237C13.0312 8.81497 12.6996 8.78392 12.2966 8.7791C11.3827 8.76954 10.7955 8.82702 10.5351 8.95144C10.4319 9.00402 10.3385 9.07585 10.2551 9.16671C10.1666 9.27203 10.1542 9.3295 10.2181 9.33895C10.513 9.38197 10.7217 9.48488 10.8446 9.64757L10.8888 9.73378C10.9233 9.79598 10.9577 9.9061 10.9921 10.064C11.0264 10.2219 11.0486 10.3965 11.0584 10.5879C11.0829 10.9373 11.0829 11.2364 11.0584 11.4852C11.0338 11.7341 11.0105 11.9278 10.9884 12.0666C10.9662 12.2054 10.933 12.3179 10.8888 12.404C10.8446 12.4901 10.8151 12.5427 10.8003 12.5619C10.7856 12.581 10.7733 12.593 10.7636 12.5977C10.6997 12.6216 10.6333 12.6337 10.5645 12.6337C10.4957 12.6337 10.4122 12.6002 10.3139 12.5331C10.2157 12.4661 10.1138 12.374 10.0081 12.2568C9.90244 12.1395 9.78328 11.9756 9.65057 11.7651C9.51796 11.5545 9.38036 11.3057 9.23786 11.0186L9.11997 10.8104C9.04626 10.6764 8.94559 10.4813 8.81783 10.2254C8.68999 9.96931 8.577 9.72161 8.47877 9.48234C8.43951 9.38185 8.38052 9.30534 8.30192 9.25269L8.26503 9.2311C8.2405 9.21199 8.20113 9.1917 8.14713 9.17008C8.09305 9.14848 8.03661 9.13299 7.9776 9.12346L5.95812 9.13774C5.75176 9.13774 5.61174 9.18328 5.53801 9.27421L5.5085 9.31723C5.49376 9.34119 5.48633 9.37946 5.48633 9.43213C5.48633 9.48478 5.50107 9.54939 5.53057 9.6259C5.82538 10.3007 6.14598 10.9515 6.49236 11.5784C6.83875 12.2053 7.13975 12.7102 7.39519 13.0928C7.65068 13.4757 7.9111 13.8371 8.17645 14.1768C8.44181 14.5166 8.61745 14.7343 8.70339 14.83C8.78943 14.9258 8.85701 14.9975 8.90614 15.0453L9.09043 15.2176C9.20836 15.3324 9.38152 15.47 9.61001 15.6303C9.83855 15.7907 10.0916 15.9486 10.3692 16.1042C10.6468 16.2596 10.9699 16.3864 11.3384 16.4845C11.7069 16.5827 12.0656 16.6221 12.4145 16.6031H13.2621C13.434 16.5886 13.5642 16.536 13.6528 16.4451L13.6821 16.4091C13.7018 16.3806 13.7203 16.3362 13.7373 16.2765C13.7546 16.2167 13.7631 16.1508 13.7631 16.0791C13.7581 15.8734 13.7742 15.6879 13.8109 15.5229C13.8477 15.3578 13.8895 15.2334 13.9364 15.1496C13.9832 15.0659 14.036 14.9952 14.0948 14.938C14.1537 14.8806 14.1957 14.8458 14.2203 14.8338C14.2448 14.8218 14.2643 14.8136 14.279 14.8087C14.397 14.7704 14.5357 14.8075 14.6956 14.9201C14.8553 15.0325 15.0051 15.1714 15.1452 15.3364C15.2853 15.5016 15.4535 15.6869 15.65 15.8926C15.8467 16.0984 16.0186 16.2514 16.166 16.3521L16.3133 16.4382C16.4117 16.4957 16.5395 16.5483 16.6967 16.5962C16.8537 16.644 16.9913 16.656 17.1094 16.6321L18.9961 16.6034C19.1827 16.6034 19.3279 16.5733 19.4309 16.5136C19.5341 16.4538 19.5954 16.3879 19.6152 16.3162C19.6349 16.2444 19.636 16.163 19.619 16.072C19.6015 15.9812 19.5843 15.9178 19.5671 15.8819Z" fill="#463A34"/>
<path fill-rule="evenodd" clip-rule="evenodd" d="M12.5642 24.2112C18.9155 24.2112 24.0642 19.0625 24.0642 12.7112C24.0642 6.35991 18.9155 1.21118 12.5642 1.21118C6.21293 1.21118 1.06421 6.35991 1.06421 12.7112C1.06421 19.0625 6.21293 24.2112 12.5642 24.2112ZM12.5642 25.2112C19.4678 25.2112 25.0642 19.6147 25.0642 12.7112C25.0642 5.80762 19.4678 0.211182 12.5642 0.211182C5.66065 0.211182 0.064209 5.80762 0.064209 12.7112C0.064209 19.6147 5.66065 25.2112 12.5642 25.2112Z" fill="#463A34"/>
</svg>
