<svg width="16" height="15" viewBox="0 0 16 15" fill="none" xmlns="http://www.w3.org/2000/svg">
<line x1="1.80619" y1="0.51965" x2="15.361" y2="14.6543" stroke="#F40000"/>
<line y1="-0.5" x2="19.5837" y2="-0.5" transform="matrix(-0.692146 0.721757 0.721757 0.692146 15 0.865234)" stroke="#F40000"/>
</svg>
